<svg xmlns="http://www.w3.org/2000/svg" width="144" height="144" viewBox="0 0 72 72">
  <circle cx="32" cy="66" r="2" fill="#fafafa"/>
  <circle cx="40" cy="66" r="2" fill="#fafafa"/>
  <circle cx="36" cy="6" r="2" fill="#fafafa"/>
</svg>
